task1_final/task1_final.sim/sim_1/behav/xsim/dump.vcd
$date
   Thu May 11 22:31:06 2023
$end
$version
  2020.1
$end
$timescale
  1ps
$end
$scope module riscvtb $end
$var reg 1 ! clk $end
$var reg 1 " reset $end
$var wire 64 # index1 [63:0] $end
$var wire 64 $ index2 [63:0] $end
$var wire 64 % index3 [63:0] $end
$var wire 64 & index4 [63:0] $end
$var wire 64 ' index5 [63:0] $end
$scope module t1 $end
$var wire 1 ( clk $end
$var wire 1 ) reset $end
$var wire 64 # ele1 [63:0] $end
$var wire 64 $ ele2 [63:0] $end
$var wire 64 % ele3 [63:0] $end
$var wire 64 & ele4 [63:0] $end
$var wire 64 ' ele5 [63:0] $end
$var wire 64 * PC_Out [63:0] $end
$var wire 64 + adder1out [63:0] $end
$var wire 32 , Instruction [31:0] $end
$var wire 7 - opcode [6:0] $end
$var wire 5 . rd [4:0] $end
$var wire 3 / func3 [2:0] $end
$var wire 5 0 rs1 [4:0] $end
$var wire 5 1 rs2 [4:0] $end
$var wire 7 2 func7 [6:0] $end
$var wire 2 3 ALUop [1:0] $end
$var wire 1 4 Branch $end
$var wire 1 5 MemRead $end
$var wire 1 6 MemtoReg $end
$var wire 1 7 MemWrite $end
$var wire 1 8 ALUSrc $end
$var wire 1 9 RegWrite $end
$var wire 64 : write_data [63:0] $end
$var wire 64 ; ReadData1 [63:0] $end
$var wire 64 < ReadData2 [63:0] $end
$var wire 64 = imm_data [63:0] $end
$var wire 64 > ALUinputb [63:0] $end
$var wire 4 ? Operation [3:0] $end
$var wire 64 @ Result [63:0] $end
$var wire 1 A Zero $end
$var wire 64 B adder2out [63:0] $end
$var wire 64 C muxp12 [63:0] $end
$var wire 64 D readdata [63:0] $end
$scope module pc $end
$var wire 1 ( clk $end
$var wire 1 ) reset $end
$var wire 64 C PC_In [63:0] $end
$var reg 64 E PC_Out [63:0] $end
$upscope $end
$scope module adder $end
$var wire 64 * a [63:0] $end
$var wire 64 F b [63:0] $end
$var reg 64 G out [63:0] $end
$upscope $end
$scope module im $end
$var wire 64 * Inst_Address [63:0] $end
$var reg 32 H Instruction [31:0] $end
$var integer 32 I i $end
$upscope $end
$scope module ip $end
$var reg 7 J opcode [6:0] $end
$var reg 5 K rd [4:0] $end
$var reg 3 L func3 [2:0] $end
$var reg 5 M rs1 [4:0] $end
$var reg 5 N rs2 [4:0] $end
$var reg 7 O func7 [6:0] $end
$var wire 32 , inst [31:0] $end
$upscope $end
$scope module cu $end
$var wire 7 - OpCode [6:0] $end
$var reg 1 P Branch $end
$var reg 1 Q MemRead $end
$var reg 1 R MemtoReg $end
$var reg 1 S MemWrite $end
$var reg 1 T ALUSrc $end
$var reg 1 U RegWrite $end
$var reg 2 V ALUOp [1:0] $end
$upscope $end
$scope module rf $end
$var wire 1 ( clk $end
$var wire 1 ) reset $end
$var wire 5 0 rs1 [4:0] $end
$var wire 5 1 rs2 [4:0] $end
$var wire 5 . rd [4:0] $end
$var wire 64 : write_data [63:0] $end
$var wire 1 9 RegWrite $end
$var reg 64 W readdata1 [63:0] $end
$var reg 64 X readdata2 [63:0] $end
$var integer 32 Y i $end
$upscope $end
$scope module ide $end
$var wire 32 , inst [31:0] $end
$var reg 64 Z imm_data [63:0] $end
$var wire 7 [ opcode [6:0] $end
$upscope $end
$scope module alumx $end
$var wire 64 < a [63:0] $end
$var wire 64 = b [63:0] $end
$var wire 1 8 sel $end
$var reg 64 \ data_out [63:0] $end
$upscope $end
$scope module aluc $end
$var wire 2 3 ALUOp [1:0] $end
$var wire 4 ] Funct [3:0] $end
$var reg 4 ^ Operation [3:0] $end
$upscope $end
$scope module alu $end
$var wire 64 ; a [63:0] $end
$var wire 64 > b [63:0] $end
$var wire 4 ? ALUop [3:0] $end
$var reg 64 _ Result [63:0] $end
$var wire 1 A Zero $end
$upscope $end
$scope module adder2 $end
$var wire 64 * a [63:0] $end
$var wire 64 ` b [63:0] $end
$var reg 64 a out [63:0] $end
$upscope $end
$scope module pcmux $end
$var wire 64 + a [63:0] $end
$var wire 64 B b [63:0] $end
$var wire 1 b sel $end
$var reg 64 c data_out [63:0] $end
$upscope $end
$scope module dm $end
$var wire 1 ( clk $end
$var wire 1 7 MemWrite $end
$var wire 1 5 MemRead $end
$var wire 64 @ Mem_Address [63:0] $end
$var wire 64 < Write_Data [63:0] $end
$var reg 64 d Read_Data [63:0] $end
$var wire 64 # element1 [63:0] $end
$var wire 64 $ element2 [63:0] $end
$var wire 64 % element3 [63:0] $end
$var wire 64 & element4 [63:0] $end
$var wire 64 ' element5 [63:0] $end
$var integer 32 e i $end
$var integer 32 f x $end
$upscope $end
$scope module mux $end
$var wire 64 @ a [63:0] $end
$var wire 64 D b [63:0] $end
$var wire 1 6 sel $end
$var reg 64 g data_out [63:0] $end
$upscope $end
$upscope $end
$upscope $end
$enddefinitions $end
#0
$dumpvars
0!
1"
b10 #
b1 $
b11 %
b0 &
b100 '
0(
1)
b0 *
b100 +
b100010110100010001100011 ,
b1100011 -
b1000 .
b100 /
b10110 0
b1000 1
b0 2
b1 3
14
05
x6
07
08
09
bx :
b0 ;
b0 <
b100 =
b0 >
b100 ?
b1 @
0A
b1000 B
b100 C
bx D
b0 E
b100 F
b100 G
b100010110100010001100011 H
bx I
b1100011 J
b1000 K
b100 L
b10110 M
b1000 N
b0 O
1P
0Q
xR
0S
0T
0U
b1 V
b0 W
b0 X
b100000 Y
b100 Z
b1100011 [
b0 \
b100 ]
b100 ^
b1 _
b1000 `
b1000 a
0b
b100 c
bx d
b1000000 e
bx f
bx g
$end
#5000
1!
1(
b0 E
#10000
0!
0"
0(
0)
b101 <
b101 >
b0 @
1A
b1000 C
b0 W
b101 X
b101 \
b0 _
1b
b1000 c
bx g
#15000
1!
1(
b1000 *
b1100 +
b10110000101110010011 ,
b10011 -
b10111 .
b0 /
b0 1
b0 3
04
06
18
19
b0 :
b0 <
b0 =
b0 >
b10 ?
b0 @
1A
b1000 B
b1100 C
b1000 E
b1100 G
b10110000101110010011 H
b10011 J
b10111 K
b0 L
b10110 M
b0 N
b0 O
0P
0Q
0R
0S
1T
1U
b0 V
b0 W
b0 X
b0 Z
b10011 [
b0 \
b0 ]
b10 ^
b0 _
b0 `
b1000 a
0b
b1100 c
b0 g
#20000
0!
0(
#25000
1!
1(
b1100 *
b10000 +
b11100000111010010011 ,
b11101 .
b11100 0
b1100 B
b10000 C
b1100 E
b10000 G
b11100000111010010011 H
b10011 J
b11101 K
b0 L
b11100 M
b0 N
b0 O
b0 W
b0 X
b0 Z
b0 ]
b1100 a
b10000 c
#30000
0!
0(
#35000
1!
1(
b10000 *
b10100 +
b100010111100010001100011 ,
b1100011 -
b1000 .
b100 /
b10111 0
b1000 1
b1 3
14
x6
08
09
bx :
b101 <
b100 =
b101 >
b100 ?
b0 @
1A
b11000 B
b11000 C
b10000 E
b10100 G
b100010111100010001100011 H
b1100011 J
b1000 K
b100 L
b10111 M
b1000 N
b0 O
1P
0Q
xR
0S
0T
0U
b1 V
b0 W
b101 X
b100 Z
b1100011 [
b101 \
b100 ]
b100 ^
b0 _
b1000 `
b11000 a
1b
b11000 c
bx g
#40000
0!
0(
#45000
1!
1(
b11000 *
b11100 +
b11100011011000000011 ,
b11 -
b1100 .
b11 /
b11100 0
b0 1
b0 3
04
15
16
18
19
b10 :
b0 <
b0 =
b0 >
b10 ?
b11000 B
b11100 C
b10 D
b11000 E
b11100 G
b11100011011000000011 H
b11 J
b1100 K
b11 L
b11100 M
b0 N
b0 O
0P
1Q
1R
0S
1T
1U
b0 V
b0 W
b0 X
b0 Z
b11 [
b0 \
b11 ]
b10 ^
b0 _
b0 `
b11000 a
0b
b11100 c
b10 d
b10 g
#50000
0!
0(
#55000
1!
1(
b11100 *
b100000 +
b11101011011010000011 ,
b1101 .
b11101 0
b11100 B
b100000 C
b11100 E
b100000 G
b11101011011010000011 H
b11 J
b1101 K
b11 L
b11101 M
b0 N
b0 O
b0 W
b0 X
b0 Z
b11 ]
b11100 a
b100000 c
#60000
0!
0(
#65000
1!
1(
b100000 *
b100100 +
b110101100100111001100011 ,
b1100011 -
b11100 .
b100 /
b1100 0
b1101 1
b1 3
14
05
x6
08
09
b0xx :
b10 ;
b10 <
b1110 =
b10 >
b100 ?
b1 @
0A
b111100 B
b100100 C
b100000 E
b100100 G
b110101100100111001100011 H
b1100011 J
b11100 K
b100 L
b1100 M
b1101 N
b0 O
1P
0Q
xR
0S
0T
0U
b1 V
b10 W
b10 X
b1110 Z
b1100011 [
b10 \
b100 ]
b100 ^
b1 _
b11100 `
b111100 a
0b
b100100 c
b0xx g
#70000
0!
0(
#75000
1!
1(
b100100 *
b101000 +
b110111000101110010011 ,
b10011 -
b10111 .
b0 /
b10111 0
b1 1
b0 3
04
06
18
19
b1 :
b0 ;
b0 <
b1 =
b1 >
b10 ?
b1 @
0A
b100110 B
b101000 C
b100100 E
b101000 G
b110111000101110010011 H
b10011 J
b10111 K
b0 L
b10111 M
b1 N
b0 O
0P
0Q
0R
0S
1T
1U
b0 V
b0 W
b0 X
b1 Z
b10011 [
b1 \
b0 ]
b10 ^
b1 _
b10 `
b100110 a
0b
b101000 c
b1 g
#80000
0!
0(
#85000
1!
1(
b101000 *
b101100 +
b100011101000111010010011 ,
b11101 .
b11101 0
b1000 1
b1000 :
b0 ;
b101 <
b1000 =
b1000 >
b1000 @
0A
b111000 B
b101100 C
b101000 E
b101100 G
b100011101000111010010011 H
b10011 J
b11101 K
b0 L
b11101 M
b1000 N
b0 O
b0 W
b101 X
b1000 Z
b1000 \
b0 ]
b1000 _
b10000 `
b111000 a
b101100 c
b1000 g
#90000
0!
0(
#95000
1!
1(
b101100 *
b110000 +
b11111110100010111100011011100011 ,
b1100011 -
b1101 .
b100 /
b10111 0
b1111111 2
b1 3
14
x6
08
09
b0x0 :
b1 ;
b1111111111111111111111111111111111111111111111111111111111110110 =
b101 >
b100 ?
b0 @
1A
b11000 B
b11000 C
b101100 E
b110000 G
b11111110100010111100011011100011 H
b1100011 J
b1101 K
b100 L
b10111 M
b1000 N
b1111111 O
1P
0Q
xR
0S
0T
0U
b1 V
b1 W
b101 X
b1111111111111111111111111111111111111111111111111111111111110110 Z
b1100011 [
b101 \
b1100 ]
b100 ^
b0 _
b1111111111111111111111111111111111111111111111111111111111101100 `
b11000 a
1b
b11000 c
b0x0 g
#100000
0!
0(
#105000
1!
1(
b11000 *
b11100 +
b11100011011000000011 ,
b11 -
b1100 .
b11 /
b11100 0
b0 1
b0 2
b0 3
04
15
16
18
19
b10 :
b0 ;
b0 <
b0 =
b0 >
b10 ?
b11000 B
b11100 C
b11000 E
b11100 G
b11100011011000000011 H
b11 J
b1100 K
b11 L
b11100 M
b0 N
b0 O
0P
1Q
1R
0S
1T
1U
b0 V
b0 W
b0 X
b0 Z
b11 [
b0 \
b11 ]
b10 ^
b0 _
b0 `
b11000 a
0b
b11100 c
b10 d
b10 g
#110000
0!
0(
#115000
1!
1(
b11100 *
b100000 +
b11101011011010000011 ,
b1101 .
b11101 0
b1 :
b1000 ;
b1000 @
0A
b11100 B
b100000 C
b1 D
b11100 E
b100000 G
b11101011011010000011 H
b11 J
b1101 K
b11 L
b11101 M
b0 N
b0 O
b1000 W
b0 X
b0 Z
b11 ]
b1000 _
b11100 a
0b
b100000 c
b1 d
b1 g
#120000
0!
0(
#125000
1!
1(
b100000 *
b100100 +
b110101100100111001100011 ,
b1100011 -
b11100 .
b100 /
b1100 0
b1101 1
b1 3
14
05
x6
08
09
b1 :
b10 ;
b1 <
b1110 =
b1 >
b100 ?
b1 @
0A
b111100 B
b100100 C
b100000 E
b100100 G
b110101100100111001100011 H
b1100011 J
b11100 K
b100 L
b1100 M
b1101 N
b0 O
1P
0Q
xR
0S
0T
0U
b1 V
b10 W
b1 X
b1110 Z
b1100011 [
b1 \
b100 ]
b100 ^
b1 _
b11100 `
b111100 a
0b
b100100 c
b1 g
#130000
0!
0(
#135000
1!
1(
b100100 *
b101000 +
b110111000101110010011 ,
b10011 -
b10111 .
b0 /
b10111 0
b1 1
b0 3
04
06
18
19
b10 :
b1 ;
b0 <
b1 =
b10 ?
b10 @
0A
b100110 B
b101000 C
b100100 E
b101000 G
b110111000101110010011 H
b10011 J
b10111 K
b0 L
b10111 M
b1 N
b0 O
0P
0Q
0R
0S
1T
1U
b0 V
b1 W
b0 X
b1 Z
b10011 [
b1 \
b0 ]
b10 ^
b10 _
b10 `
b100110 a
0b
b101000 c
b10 g
#140000
0!
0(
#145000
1!
1(
b101000 *
b101100 +
b100011101000111010010011 ,
b11101 .
b11101 0
b1000 1
b10000 :
b1000 ;
b101 <
b1000 =
b1000 >
b10000 @
0A
b111000 B
b101100 C
b101000 E
b101100 G
b100011101000111010010011 H
b10011 J
b11101 K
b0 L
b11101 M
b1000 N
b0 O
b1000 W
b101 X
b1000 Z
b1000 \
b0 ]
b10000 _
b10000 `
b111000 a
b101100 c
b10000 g
#150000
0!
0(
#155000
1!
1(
b101100 *
b110000 +
b11111110100010111100011011100011 ,
b1100011 -
b1101 .
b100 /
b10111 0
b1111111 2
b1 3
14
x6
08
09
b0x :
b10 ;
b1111111111111111111111111111111111111111111111111111111111110110 =
b101 >
b100 ?
b0 @
1A
b11000 B
b11000 C
b101100 E
b110000 G
b11111110100010111100011011100011 H
b1100011 J
b1101 K
b100 L
b10111 M
b1000 N
b1111111 O
1P
0Q
xR
0S
0T
0U
b1 V
b10 W
b101 X
b1111111111111111111111111111111111111111111111111111111111110110 Z
b1100011 [
b101 \
b1100 ]
b100 ^
b0 _
b1111111111111111111111111111111111111111111111111111111111101100 `
b11000 a
1b
b11000 c
b0x g
#160000
0!
0(
#165000
1!
1(
b11000 *
b11100 +
b11100011011000000011 ,
b11 -
b1100 .
b11 /
b11100 0
b0 1
b0 2
b0 3
04
15
16
18
19
b10 :
b0 ;
b0 <
b0 =
b0 >
b10 ?
b11000 B
b11100 C
b10 D
b11000 E
b11100 G
b11100011011000000011 H
b11 J
b1100 K
b11 L
b11100 M
b0 N
b0 O
0P
1Q
1R
0S
1T
1U
b0 V
b0 W
b0 X
b0 Z
b11 [
b0 \
b11 ]
b10 ^
b0 _
b0 `
b11000 a
0b
b11100 c
b10 d
b10 g
#170000
0!
0(
#175000
1!
1(
b11100 *
b100000 +
b11101011011010000011 ,
b1101 .
b11101 0
b11 :
b10000 ;
b10000 @
0A
b11100 B
b100000 C
b11 D
b11100 E
b100000 G
b11101011011010000011 H
b11 J
b1101 K
b11 L
b11101 M
b0 N
b0 O
b10000 W
b0 X
b0 Z
b11 ]
b10000 _
b11100 a
0b
b100000 c
b11 d
b11 g
#180000
0!
0(
#185000
1!
1(
b100000 *
b100100 +
b110101100100111001100011 ,
b1100011 -
b11100 .
b100 /
b1100 0
b1101 1
b1 3
14
05
x6
08
09
b0xx :
b10 ;
b11 <
b1110 =
b11 >
b100 ?
b0 @
1A
b111100 B
b111100 C
b100000 E
b100100 G
b110101100100111001100011 H
b1100011 J
b11100 K
b100 L
b1100 M
b1101 N
b0 O
1P
0Q
xR
0S
0T
0U
b1 V
b10 W
b11 X
b1110 Z
b1100011 [
b11 \
b100 ]
b100 ^
b0 _
b11100 `
b111100 a
1b
b111100 c
b0xx g
#190000
0!
0(
#195000
1!
1(
b111100 *
b1000000 +
b1100000001010110011 ,
b110011 -
b101 .
b0 /
b0 1
b10 3
04
06
19
b10 :
b0 <
b101 =
b0 >
b10 ?
b10 @
0A
b1000110 B
b1000000 C
b111100 E
b1000000 G
b1100000001010110011 H
b110011 J
b101 K
b0 L
b1100 M
b0 N
b0 O
0P
0Q
0R
0S
0T
1U
b10 V
b10 W
b0 X
b101 Z
b110011 [
b0 \
b0 ]
b10 ^
b10 _
b1010 `
b1000110 a
0b
b1000000 c
b10 g
#200000
0!
0(
#205000
1!
1(
b1000000 *
b1000100 +
b110111100011000000100011 ,
b100011 -
b0 .
b11 /
b11100 0
b1101 1
b0 3
x6
17
18
09
b0xx :
b0 ;
b11 <
b0 =
b0 @
1A
b1000000 B
b1000100 C
b1000000 E
b1000100 G
b110111100011000000100011 H
b100011 J
b0 K
b11 L
b11100 M
b1101 N
b0 O
0P
0Q
xR
1S
1T
0U
b0 V
b0 W
b11 X
b0 Z
b100011 [
b0 \
b11 ]
b10 ^
b0 _
b0 `
b1000000 a
0b
b1000100 c
b0xx g
#210000
0!
0(
#215000
1!
b11 #
1(
b1000100 *
b1001000 +
b10111101011000000100011 ,
b11101 0
b101 1
b0x00xx :
b10000 ;
b10 <
b10000 @
0A
b1000100 B
b1001000 C
b1000100 E
b1001000 G
b10111101011000000100011 H
b100011 J
b0 K
b11 L
b11101 M
b101 N
b0 O
b10000 W
b10 X
b0 Z
b0 \
b11 ]
b10000 _
b1000100 a
0b
b1001000 c
b0x00xx g
#220000
0!
0(
#225000
1!
b10 %
1(
b1001000 *
b1001100 +
b110111000101110010011 ,
b10011 -
b10111 .
b0 /
b10111 0
b1 1
06
07
19
b11 :
b10 ;
b0 <
b1 =
b1 >
b11 @
0A
b1001010 B
b1001100 C
b1001000 E
b1001100 G
b110111000101110010011 H
b10011 J
b10111 K
b0 L
b10111 M
b1 N
b0 O
0P
0Q
0R
0S
1T
1U
b0 V
b10 W
b0 X
b1 Z
b10011 [
b1 \
b0 ]
b10 ^
b11 _
b10 `
b1001010 a
b1001100 c
b11 g
#230000
0!
0(
#235000
1!
1(
b1001100 *
b1010000 +
b100011101000111010010011 ,
b11101 .
b11101 0
b1000 1
b11000 :
b10000 ;
b101 <
b1000 =
b1000 >
b11000 @
0A
b1011100 B
b1010000 C
b1001100 E
b1010000 G
b100011101000111010010011 H
b10011 J
b11101 K
b0 L
b11101 M
b1000 N
b0 O
b10000 W
b101 X
b1000 Z
b1000 \
b0 ]
b11000 _
b10000 `
b1011100 a
b1010000 c
b11000 g
#240000
0!
0(
#245000
1!
1(
b1010000 *
b1010100 +
b11111100100010111100010011100011 ,
b1100011 -
b1001 .
b100 /
b10111 0
b1111110 2
b1 3
14
x6
08
09
b0xx :
b11 ;
b1111111111111111111111111111111111111111111111111111111111100100 =
b101 >
b100 ?
b0 @
1A
b11000 B
b11000 C
b1010000 E
b1010100 G
b11111100100010111100010011100011 H
b1100011 J
b1001 K
b100 L
b10111 M
b1000 N
b1111110 O
1P
0Q
xR
0S
0T
0U
b1 V
b11 W
b101 X
b1111111111111111111111111111111111111111111111111111111111100100 Z
b1100011 [
b101 \
b1100 ]
b100 ^
b0 _
b1111111111111111111111111111111111111111111111111111111111001000 `
b11000 a
1b
b11000 c
b0xx g
#250000
0!
0(
#255000
1!
1(
b11000 *
b11100 +
b11100011011000000011 ,
b11 -
b1100 .
b11 /
b11100 0
b0 1
b0 2
b0 3
04
15
16
18
19
b11 :
b0 ;
b0 <
b0 =
b0 >
b10 ?
b11000 B
b11100 C
b11000 E
b11100 G
b11100011011000000011 H
b11 J
b1100 K
b11 L
b11100 M
b0 N
b0 O
0P
1Q
1R
0S
1T
1U
b0 V
b0 W
b0 X
b0 Z
b11 [
b0 \
b11 ]
b10 ^
b0 _
b0 `
b11000 a
0b
b11100 c
b11 d
b11 g
#260000
0!
0(
#265000
1!
1(
b11100 *
b100000 +
b11101011011010000011 ,
b1101 .
b11101 0
b0 :
b11000 ;
b11000 @
0A
b11100 B
b100000 C
b0 D
b11100 E
b100000 G
b11101011011010000011 H
b11 J
b1101 K
b11 L
b11101 M
b0 N
b0 O
b11000 W
b0 X
b0 Z
b11 ]
b11000 _
b11100 a
0b
b100000 c
b0 d
b0 g
#270000
0!
0(
#275000
1!
1(
b100000 *
b100100 +
b110101100100111001100011 ,
b1100011 -
b11100 .
b100 /
b1100 0
b1101 1
b1 3
14
05
x6
08
09
b0x :
b11 ;
b1110 =
b0 >
b100 ?
b1 @
0A
b111100 B
b100100 C
b100000 E
b100100 G
b110101100100111001100011 H
b1100011 J
b11100 K
b100 L
b1100 M
b1101 N
b0 O
1P
0Q
xR
0S
0T
0U
b1 V
b11 W
b0 X
b1110 Z
b1100011 [
b0 \
b100 ]
b100 ^
b1 _
b11100 `
b111100 a
0b
b100100 c
b0x g
#280000
0!
0(
#285000
1!
1(
b100100 *
b101000 +
b110111000101110010011 ,
b10011 -
b10111 .
b0 /
b10111 0
b1 1
b0 3
04
06
18
19
b100 :
b1 =
b1 >
b10 ?
b100 @
0A
b100110 B
b101000 C
b100100 E
b101000 G
b110111000101110010011 H
b10011 J
b10111 K
b0 L
b10111 M
b1 N
b0 O
0P
0Q
0R
0S
1T
1U
b0 V
b11 W
b0 X
b1 Z
b10011 [
b1 \
b0 ]
b10 ^
b100 _
b10 `
b100110 a
0b
b101000 c
b100 g
#290000
0!
0(
#295000
1!
1(
b101000 *
b101100 +
b100011101000111010010011 ,
b11101 .
b11101 0
b1000 1
b100000 :
b11000 ;
b101 <
b1000 =
b1000 >
b100000 @
0A
b111000 B
b101100 C
b101000 E
b101100 G
b100011101000111010010011 H
b10011 J
b11101 K
b0 L
b11101 M
b1000 N
b0 O
b11000 W
b101 X
b1000 Z
b1000 \
b0 ]
b100000 _
b10000 `
b111000 a
b101100 c
b100000 g
#300000
0!
0(
#305000
1!
1(
b101100 *
b110000 +
b11111110100010111100011011100011 ,
b1100011 -
b1101 .
b100 /
b10111 0
b1111111 2
b1 3
14
x6
08
09
b0 :
b100 ;
b1111111111111111111111111111111111111111111111111111111111110110 =
b101 >
b100 ?
b0 @
1A
b11000 B
b11000 C
b101100 E
b110000 G
b11111110100010111100011011100011 H
b1100011 J
b1101 K
b100 L
b10111 M
b1000 N
b1111111 O
1P
0Q
xR
0S
0T
0U
b1 V
b100 W
b101 X
b1111111111111111111111111111111111111111111111111111111111110110 Z
b1100011 [
b101 \
b1100 ]
b100 ^
b0 _
b1111111111111111111111111111111111111111111111111111111111101100 `
b11000 a
1b
b11000 c
b0 g
#310000
0!
0(
#315000
1!
1(
b11000 *
b11100 +
b11100011011000000011 ,
b11 -
b1100 .
b11 /
b11100 0
b0 1
b0 2
b0 3
04
15
16
18
19
b11 :
b0 ;
b0 <
b0 =
b0 >
b10 ?
b11000 B
b11100 C
b11 D
b11000 E
b11100 G
b11100011011000000011 H
b11 J
b1100 K
b11 L
b11100 M
b0 N
b0 O
0P
1Q
1R
0S
1T
1U
b0 V
b0 W
b0 X
b0 Z
b11 [
b0 \
b11 ]
b10 ^
b0 _
b0 `
b11000 a
0b
b11100 c
b11 d
b11 g
#320000
0!
0(
#325000
1!
1(
b11100 *
b100000 +
b11101011011010000011 ,
b1101 .
b11101 0
b100 :
b100000 ;
b100000 @
0A
b11100 B
b100000 C
b100 D
b11100 E
b100000 G
b11101011011010000011 H
b11 J
b1101 K
b11 L
b11101 M
b0 N
b0 O
b100000 W
b0 X
b0 Z
b11 ]
b100000 _
b11100 a
0b
b100000 c
b100 d
b100 g
#330000
0!
0(
#335000
1!
1(
b100000 *
b100100 +
b110101100100111001100011 ,
b1100011 -
b11100 .
b100 /
b1100 0
b1101 1
b1 3
14
05
x6
08
09
b0x00 :
b11 ;
b100 <
b1110 =
b100 >
b100 ?
b0 @
1A
b111100 B
b111100 C
b100000 E
b100100 G
b110101100100111001100011 H
b1100011 J
b11100 K
b100 L
b1100 M
b1101 N
b0 O
1P
0Q
xR
0S
0T
0U
b1 V
b11 W
b100 X
b1110 Z
b1100011 [
b100 \
b100 ]
b100 ^
b0 _
b11100 `
b111100 a
1b
b111100 c
b0x00 g
#340000
0!
0(
#345000
1!
1(
b111100 *
b1000000 +
b1100000001010110011 ,
b110011 -
b101 .
b0 /
b0 1
b10 3
04
06
19
b11 :
b0 <
b101 =
b0 >
b10 ?
b11 @
0A
b1000110 B
b1000000 C
b111100 E
b1000000 G
b1100000001010110011 H
b110011 J
b101 K
b0 L
b1100 M
b0 N
b0 O
0P
0Q
0R
0S
0T
1U
b10 V
b11 W
b0 X
b101 Z
b110011 [
b0 \
b0 ]
b10 ^
b11 _
b1010 `
b1000110 a
0b
b1000000 c
b11 g
#350000
0!
0(
#355000
1!
1(
b1000000 *
b1000100 +
b110111100011000000100011 ,
b100011 -
b0 .
b11 /
b11100 0
b1101 1
b0 3
x6
17
18
09
b0x00 :
b0 ;
b100 <
b0 =
b0 @
1A
b1000000 B
b1000100 C
b1000000 E
b1000100 G
b110111100011000000100011 H
b100011 J
b0 K
b11 L
b11100 M
b1101 N
b0 O
0P
0Q
xR
1S
1T
0U
b0 V
b0 W
b100 X
b0 Z
b100011 [
b0 \
b11 ]
b10 ^
b0 _
b0 `
b1000000 a
0b
b1000100 c
b0x00 g
#360000
0!
0(
#365000
1!
b100 #
1(
b1000100 *
b1001000 +
b10111101011000000100011 ,
b11101 0
b101 1
b0x00x00 :
b100000 ;
b11 <
b100000 @
0A
b1000100 B
b1001000 C
b1000100 E
b1001000 G
b10111101011000000100011 H
b100011 J
b0 K
b11 L
b11101 M
b101 N
b0 O
b100000 W
b11 X
b0 Z
b0 \
b11 ]
b100000 _
b1000100 a
0b
b1001000 c
b0x00x00 g
#370000
0!
0(
#375000
1!
b11 '
1(
b1001000 *
b1001100 +
b110111000101110010011 ,
b10011 -
b10111 .
b0 /
b10111 0
b1 1
06
07
19
b101 :
b100 ;
b0 <
b1 =
b1 >
b101 @
0A
b1001010 B
b1001100 C
b1001000 E
b1001100 G
b110111000101110010011 H
b10011 J
b10111 K
b0 L
b10111 M
b1 N
b0 O
0P
0Q
0R
0S
1T
1U
b0 V
b100 W
b0 X
b1 Z
b10011 [
b1 \
b0 ]
b10 ^
b101 _
b10 `
b1001010 a
b1001100 c
b101 g
#380000
0!
0(
#385000
1!
1(
b1001100 *
b1010000 +
b100011101000111010010011 ,
b11101 .
b11101 0
b1000 1
b101000 :
b100000 ;
b101 <
b1000 =
b1000 >
b101000 @
0A
b1011100 B
b1010000 C
b1001100 E
b1010000 G
b100011101000111010010011 H
b10011 J
b11101 K
b0 L
b11101 M
b1000 N
b0 O
b100000 W
b101 X
b1000 Z
b1000 \
b0 ]
b101000 _
b10000 `
b1011100 a
b1010000 c
b101000 g
#390000
0!
0(
#395000
1!
1(
b1010000 *
b1010100 +
b11111100100010111100010011100011 ,
b1100011 -
b1001 .
b100 /
b10111 0
b1111110 2
b1 3
14
x6
08
09
b0x0x :
b101 ;
b1111111111111111111111111111111111111111111111111111111111100100 =
b101 >
b100 ?
b1 @
0A
b11000 B
b1010100 C
b1010000 E
b1010100 G
b11111100100010111100010011100011 H
b1100011 J
b1001 K
b100 L
b10111 M
b1000 N
b1111110 O
1P
0Q
xR
0S
0T
0U
b1 V
b101 W
b101 X
b1111111111111111111111111111111111111111111111111111111111100100 Z
b1100011 [
b101 \
b1100 ]
b100 ^
b1 _
b1111111111111111111111111111111111111111111111111111111111001000 `
b11000 a
0b
b1010100 c
b0x0x g
#400000
0!
0(
#405000
1!
1(
b1010100 *
b1011000 +
b110110000101100010011 ,
b10011 -
b10110 .
b0 /
b10110 0
b1 1
b0 2
b0 3
04
06
18
19
b1 :
b0 ;
b0 <
b1 =
b1 >
b10 ?
b1 @
0A
b1010110 B
b1011000 C
b1010100 E
b1011000 G
b110110000101100010011 H
b10011 J
b10110 K
b0 L
b10110 M
b1 N
b0 O
0P
0Q
0R
0S
1T
1U
b0 V
b0 W
b0 X
b1 Z
b10011 [
b1 \
b0 ]
b10 ^
b1 _
b10 `
b1010110 a
0b
b1011000 c
b1 g
#410000
0!
0(
#415000
1!
1(
b1011000 *
b1011100 +
b100011100000111000010011 ,
b11100 .
b11100 0
b1000 1
b1000 :
b0 ;
b101 <
b1000 =
b1000 >
b1000 @
0A
b1101000 B
b1011100 C
b1011000 E
b1011100 G
b100011100000111000010011 H
b10011 J
b11100 K
b0 L
b11100 M
b1000 N
b0 O
b0 W
b101 X
b1000 Z
b1000 \
b0 ]
b1000 _
b10000 `
b1101000 a
b1011100 c
b1000 g
#420000
0!
0(
#425000
1!
1(
b1011100 *
b1100000 +
b11111010000000000000001011100011 ,
b1100011 -
b101 .
b0 0
b0 1
b1111101 2
b1 3
14
x6
08
09
b0x00 :
b0 ;
b0 <
b1111111111111111111111111111111111111111111111111111111111010010 =
b0 >
b110 ?
b0 @
1A
b0 B
b0 C
b1011100 E
b1100000 G
b11111010000000000000001011100011 H
b1100011 J
b101 K
b0 L
b0 M
b0 N
b1111101 O
1P
0Q
xR
0S
0T
0U
b1 V
b0 W
b0 X
b1111111111111111111111111111111111111111111111111111111111010010 Z
b1100011 [
b0 \
b1000 ]
b110 ^
b0 _
b1111111111111111111111111111111111111111111111111111111110100100 `
b0 a
1b
b0 c
b0x00 g
#430000
0!
0(
#435000
1!
1(
b0 *
b100 +
b100010110100010001100011 ,
b1000 .
b100 /
b10110 0
b1000 1
b0 2
b0x00 :
b1 ;
b101 <
b100 =
b101 >
b100 ?
b0 @
1A
b1000 B
b1000 C
b0 E
b100 G
b100010110100010001100011 H
b1100011 J
b1000 K
b100 L
b10110 M
b1000 N
b0 O
b1 W
b101 X
b100 Z
b101 \
b100 ]
b100 ^
b0 _
b1000 `
b1000 a
1b
b1000 c
b0x00 g
#440000
0!
0(
#445000
1!
1(
b1000 *
b1100 +
b10110000101110010011 ,
b10011 -
b10111 .
b0 /
b0 1
b0 3
04
06
18
19
b1 :
b0 <
b0 =
b0 >
b10 ?
b1 @
0A
b1000 B
b1100 C
b1000 E
b1100 G
b10110000101110010011 H
b10011 J
b10111 K
b0 L
b10110 M
b0 N
b0 O
0P
0Q
0R
0S
1T
1U
b0 V
b1 W
b0 X
b0 Z
b10011 [
b0 \
b0 ]
b10 ^
b1 _
b0 `
b1000 a
0b
b1100 c
b1 g
#450000
0!
0(
